{"count":343,"next":"https://ll.thespacedevs.com/2.0.0/launch/upcoming/?limit=10&offset=10","previous":null,"results":[{"id":"b7767100-2fd3-4df6-9f23-cd6817f9972e","url":"https://ll.thespacedevs.com/2.0.0/launch/b7767100-2fd3-4df6-9f23-cd6817f9972e/","launch_library_id":null,"slug":"falcon-9-block-5-starlink-group-8-2","name":"Falcon 9 Block 5 | Starlink Group 8-2","status":{"id":3,"name":"Success"},"net":"2024-05-10T04:30:00Z","window_end":"2024-05-10T05:18:00Z","window_start":"2024-05-10T03:20:00Z","inhold":false,"tbdtime":false,"tbddate":false,"probability":null,"holdreason":"","failreason":"","hashtag":null,"launch_service_provider":{"id":121,"url":"https://ll.thespacedevs.com/2.0.0/agencies/121/","name":"SpaceX","type":"Commercial"},"rocket":{"id":8194,"configuration":{"id":164,"launch_library_id":188,"url":"https://ll.thespacedevs.com/2.0.0/config/launcher/164/","name":"Falcon 9","family":"Falcon","full_name":"Falcon 9 Block 5","variant":"Block 5"}},"mission":{"id":6763,"launch_library_id":null,"name":"Starlink Group 8-2","description":"A batch of 20 satellites for the Starlink mega-constellation - SpaceX's project for space-based Internet communication system.","launch_designator":null,"type":"Communications","orbit":{"id":8,"name":"Low Earth Orbit","abbrev":"LEO"}},"pad":{"id":16,"url":"https://ll.thespacedevs.com/2.0.0/pad/16/","agency_id":null,"name":"Space Launch Complex 4E","info_url":null,"wiki_url":"https://en.wikipedia.org/wiki/Vandenberg_Space_Launch_Complex_4#SLC-4E","map_url":"https://www.google.com/maps?q=34.632,-120.611","latitude":"34.632","longitude":"-120.611","location":{"id":11,"url":"https://ll.thespacedevs.com/2.0.0/location/11/","name":"Vandenberg SFB, CA, USA","country_code":"USA","map_image":"https://spacelaunchnow-prod-east.nyc3.digitaloceanspaces.com/media/launch_images/location_11_20200803142416.jpg","total_launch_count":754,"total_landing_count":18},"map_image":"https://spacelaunchnow-prod-east.nyc3.digitaloceanspaces.com/media/launch_images/pad_16_20200803143532.jpg","total_launch_count":143},"webcast_live":false,"image":"https://spacelaunchnow-prod-east.nyc3.digitaloceanspaces.com/media/images/falcon2520925_image_20221009234147.png","infographic":null,"program":[{"id":25,"url":"https://ll.thespacedevs.com/2.0.0/program/25/","name":"Starlink","description":"Starlink is a satellite internet constellation operated by American aerospace company SpaceX","agencies":[{"id":121,"url":"https://ll.thespacedevs.com/2.0.0/agencies/121/","name":"SpaceX","type":"Commercial"}],"image_url":"https://spacelaunchnow-prod-east.nyc3.digitaloceanspaces.com/media/images/starlink_program_20231228154508.jpeg","start_date":"2018-02-22T14:17:00Z","end_date":null,"info_url":"https://starlink.com","wiki_url":"https://en.wikipedia.org/wiki/Starlink"}]},{"id":"a7627624-e1e9-41c3-8096-d11dad956c3d","url":"https://ll.thespacedevs.com/2.0.0/launch/a7627624-e1e9-41c3-8096-d11dad956c3d/","launch_library_id":null,"slug":"long-march-4c-unknown-payload","name":"Long March 4C | Unknown Payload","status":{"id":1,"name":"Go"},"net":"2024-05-11T23:45:00Z","window_end":"2024-05-12T00:08:00Z","window_start":"2024-05-11T23:34:00Z","inhold":false,"tbdtime":true,"tbddate":false,"probability":null,"holdreason":"","failreason":"","hashtag":null,"launch_service_provider":{"id":88,"url":"https://ll.thespacedevs.com/2.0.0/agencies/88/","name":"China Aerospace Science and Technology Corporation","type":"Government"},"rocket":{"id":8241,"configuration":{"id":64,"launch_library_id":70,"url":"https://ll.thespacedevs.com/2.0.0/config/launcher/64/","name":"Long March 4C","family":"Long March","full_name":"Long March 4C","variant":"C"}},"mission":{"id":6822,"launch_library_id":null,"name":"Unknown Payload","description":"Details TBD.","launch_designator":null,"type":"Unknown","orbit":{"id":25,"name":"Unknown","abbrev":"N/A"}},"pad":{"id":22,"url":"https://ll.thespacedevs.com/2.0.0/pad/22/","agency_id":null,"name":"Launch Area 4 (SLS-2 / 603)","info_url":null,"wiki_url":"https://en.wikipedia.org/wiki/Jiuquan_Launch_Area_4","map_url":"https://www.google.com/maps?q=40.960482,100.298059","latitude":"40.960482","longitude":"100.298059","location":{"id":17,"url":"https://ll.thespacedevs.com/2.0.0/location/17/","name":"Jiuquan Satellite Launch Center, People's Republic of China","country_code":"CHN","map_image":"https://spacelaunchnow-prod-east.nyc3.digitaloceanspaces.com/media/launch_images/location_17_20200803142429.jpg","total_launch_count":224,"total_landing_count":0},"map_image":"https://spacelaunchnow-prod-east.nyc3.digitaloceanspaces.com/media/launch_images/pad_22_20200803143437.jpg","total_launch_count":113},"webcast_live":false,"image":"https://spacelaunchnow-prod-east.nyc3.digitaloceanspaces.com/media/images/long_march_4c_image_20230801172338.jpeg","infographic":null,"program":[]},{"id":"67152d83-c689-4cff-8330-b42c166049c9","url":"https://ll.thespacedevs.com/2.0.0/launch/67152d83-c689-4cff-8330-b42c166049c9/","launch_library_id":null,"slug":"falcon-9-block-5-starlink-group-6-58","name":"Falcon 9 Block 5 | Starlink Group 6-58","status":{"id":2,"name":"TBD"},"net":"2024-05-13T00:11:00Z","window_end":"2024-05-13T04:42:00Z","window_start":"2024-05-13T00:11:00Z","inhold":false,"tbdtime":true,"tbddate":false,"probability":null,"holdreason":"","failreason":"","hashtag":null,"launch_service_provider":{"id":121,"url":"https://ll.thespacedevs.com/2.0.0/agencies/121/","name":"SpaceX","type":"Commercial"},"rocket":{"id":8240,"configuration":{"id":164,"launch_library_id":188,"url":"https://ll.thespacedevs.com/2.0.0/config/launcher/164/","name":"Falcon 9","family":"Falcon","full_name":"Falcon 9 Block 5","variant":"Block 5"}},"mission":{"id":6821,"launch_library_id":null,"name":"Starlink Group 6-58","description":"A batch of satellites for the Starlink mega-constellation - SpaceX's project for space-based Internet communication system.","launch_designator":null,"type":"Communications","orbit":{"id":8,"name":"Low Earth Orbit","abbrev":"LEO"}},"pad":{"id":80,"url":"https://ll.thespacedevs.com/2.0.0/pad/80/","agency_id":121,"name":"Space Launch Complex 40","info_url":null,"wiki_url":"https://en.wikipedia.org/wiki/Cape_Canaveral_Air_Force_Station_Space_Launch_Complex_40","map_url":"https://www.google.com/maps?q=28.56194122,-80.57735736","latitude":"28.56194122","longitude":"-80.57735736","location":{"id":12,"url":"https://ll.thespacedevs.com/2.0.0/location/12/","name":"Cape Canaveral, FL, USA","country_code":"USA","map_image":"https://spacelaunchnow-prod-east.nyc3.digitaloceanspaces.com/media/launch_images/location_12_20200803142519.jpg","total_launch_count":951,"total_landing_count":51},"map_image":"https://spacelaunchnow-prod-east.nyc3.digitaloceanspaces.com/media/launch_images/pad_80_20200803143323.jpg","total_launch_count":240},"webcast_live":false,"image":"https://spacelaunchnow-prod-east.nyc3.digitaloceanspaces.com/media/images/falcon2520925_image_20221009234147.png","infographic":null,"program":[{"id":25,"url":"https://ll.thespacedevs.com/2.0.0/program/25/","name":"Starlink","description":"Starlink is a satellite internet constellation operated by American aerospace company SpaceX","agencies":[{"id":121,"url":"https://ll.thespacedevs.com/2.0.0/agencies/121/","name":"SpaceX","type":"Commercial"}],"image_url":"https://spacelaunchnow-prod-east.nyc3.digitaloceanspaces.com/media/images/starlink_program_20231228154508.jpeg","start_date":"2018-02-22T14:17:00Z","end_date":null,"info_url":"https://starlink.com","wiki_url":"https://en.wikipedia.org/wiki/Starlink"}]},{"id":"63bb93ea-d77a-4b7e-aca7-325b514e270d","url":"https://ll.thespacedevs.com/2.0.0/launch/63bb93ea-d77a-4b7e-aca7-325b514e270d/","launch_library_id":null,"slug":"falcon-9-block-5-starlink-group-8-7","name":"Falcon 9 Block 5 | Starlink Group 8-7","status":{"id":2,"name":"TBD"},"net":"2024-05-14T16:29:00Z","window_end":"2024-05-14T21:00:00Z","window_start":"2024-05-14T16:29:00Z","inhold":false,"tbdtime":true,"tbddate":false,"probability":null,"holdreason":"","failreason":"","hashtag":null,"launch_service_provider":{"id":121,"url":"https://ll.thespacedevs.com/2.0.0/agencies/121/","name":"SpaceX","type":"Commercial"},"rocket":{"id":8242,"configuration":{"id":164,"launch_library_id":188,"url":"https://ll.thespacedevs.com/2.0.0/config/launcher/164/","name":"Falcon 9","family":"Falcon","full_name":"Falcon 9 Block 5","variant":"Block 5"}},"mission":{"id":6823,"launch_library_id":null,"name":"Starlink Group 8-7","description":"A batch of satellites for the Starlink mega-constellation - SpaceX's project for space-based Internet communication system.","launch_designator":null,"type":"Communications","orbit":{"id":8,"name":"Low Earth Orbit","abbrev":"LEO"}},"pad":{"id":16,"url":"https://ll.thespacedevs.com/2.0.0/pad/16/","agency_id":null,"name":"Space Launch Complex 4E","info_url":null,"wiki_url":"https://en.wikipedia.org/wiki/Vandenberg_Space_Launch_Complex_4#SLC-4E","map_url":"https://www.google.com/maps?q=34.632,-120.611","latitude":"34.632","longitude":"-120.611","location":{"id":11,"url":"https://ll.thespacedevs.com/2.0.0/location/11/","name":"Vandenberg SFB, CA, USA","country_code":"USA","map_image":"https://spacelaunchnow-prod-east.nyc3.digitaloceanspaces.com/media/launch_images/location_11_20200803142416.jpg","total_launch_count":754,"total_landing_count":18},"map_image":"https://spacelaunchnow-prod-east.nyc3.digitaloceanspaces.com/media/launch_images/pad_16_20200803143532.jpg","total_launch_count":143},"webcast_live":false,"image":"https://spacelaunchnow-prod-east.nyc3.digitaloceanspaces.com/media/images/falcon2520925_image_20221009234147.png","infographic":null,"program":[{"id":25,"url":"https://ll.thespacedevs.com/2.0.0/program/25/","name":"Starlink","description":"Starlink is a satellite internet constellation operated by American aerospace company SpaceX","agencies":[{"id":121,"url":"https://ll.thespacedevs.com/2.0.0/agencies/121/","name":"SpaceX","type":"Commercial"}],"image_url":"https://spacelaunchnow-prod-east.nyc3.digitaloceanspaces.com/media/images/starlink_program_20231228154508.jpeg","start_date":"2018-02-22T14:17:00Z","end_date":null,"info_url":"https://starlink.com","wiki_url":"https://en.wikipedia.org/wiki/Starlink"}]},{"id":"968067d1-8c12-4018-9854-b7b7d4bddc6b","url":"https://ll.thespacedevs.com/2.0.0/launch/968067d1-8c12-4018-9854-b7b7d4bddc6b/","launch_library_id":1356,"slug":"atlas-v-n22-cst-100-starliner-crewed-flight-test","name":"Atlas V N22 | CST-100 Starliner Crewed Flight Test","status":{"id":1,"name":"Go"},"net":"2024-05-17T22:16:00Z","window_end":"2024-05-17T22:16:00Z","window_start":"2024-05-17T22:16:00Z","inhold":false,"tbdtime":false,"tbddate":false,"probability":null,"holdreason":"","failreason":"","hashtag":null,"launch_service_provider":{"id":124,"url":"https://ll.thespacedevs.com/2.0.0/agencies/124/","name":"United Launch Alliance","type":"Commercial"},"rocket":{"id":103,"configuration":{"id":166,"launch_library_id":118,"url":"https://ll.thespacedevs.com/2.0.0/config/launcher/166/","name":"Atlas V N22","family":"Atlas","full_name":"Atlas V N22","variant":"V N22"}},"mission":{"id":1052,"launch_library_id":1250,"name":"CST-100 Starliner Crewed Flight Test","description":"This is the first crewed test flight of Starliner spacecraft. It will carry NASA astronauts Barry Wilmore and\r\nSuni Williams to the International Space Station.","launch_designator":null,"type":"Test Flight","orbit":{"id":8,"name":"Low Earth Orbit","abbrev":"LEO"}},"pad":{"id":29,"url":"https://ll.thespacedevs.com/2.0.0/pad/29/","agency_id":null,"name":"Space Launch Complex 41","info_url":null,"wiki_url":"https://en.wikipedia.org/wiki/Cape_Canaveral_Air_Force_Station_Space_Launch_Complex_41","map_url":"https://www.google.com/maps?q=28.58341025,-80.58303644","latitude":"28.58341025","longitude":"-80.58303644","location":{"id":12,"url":"https://ll.thespacedevs.com/2.0.0/location/12/","name":"Cape Canaveral, FL, USA","country_code":"USA","map_image":"https://spacelaunchnow-prod-east.nyc3.digitaloceanspaces.com/media/launch_images/location_12_20200803142519.jpg","total_launch_count":951,"total_landing_count":51},"map_image":"https://spacelaunchnow-prod-east.nyc3.digitaloceanspaces.com/media/launch_images/pad_29_20200803143528.jpg","total_launch_count":111},"webcast_live":false,"image":"https://spacelaunchnow-prod-east.nyc3.digitaloceanspaces.com/media/images/atlas_v_n22_image_20210813082339.jpeg","infographic":null,"program":[{"id":5,"url":"https://ll.thespacedevs.com/2.0.0/program/5/","name":"Commercial Crew Program","description":"The Commercial Crew Program (CCP) is a human spaceflight program operated by NASA, in association with American aerospace manufacturers Boeing and SpaceX. The program conducts rotations between the expeditions of the International Space Station program, transporting crews to and from the International Space Station (ISS) aboard Boeing Starliner and SpaceX Crew Dragon capsules, in the first crewed orbital spaceflights operated by private companies.","agencies":[{"id":80,"url":"https://ll.thespacedevs.com/2.0.0/agencies/80/","name":"Boeing","type":"Commercial"},{"id":44,"url":"https://ll.thespacedevs.com/2.0.0/agencies/44/","name":"National Aeronautics and Space Administration","type":"Government"},{"id":121,"url":"https://ll.thespacedevs.com/2.0.0/agencies/121/","name":"SpaceX","type":"Commercial"}],"image_url":"https://spacelaunchnow-prod-east.nyc3.digitaloceanspaces.com/media/images/commercial2520_program_20200820201209.png","start_date":"2011-04-18T00:00:00Z","end_date":null,"info_url":"https://www.nasa.gov/exploration/commercial/crew/index.html","wiki_url":"https://en.wikipedia.org/wiki/Commercial_Crew_Program"},{"id":17,"url":"https://ll.thespacedevs.com/2.0.0/program/17/","name":"International Space Station","description":"The International Space Station programme is tied together by a complex set of legal, political and financial agreements between the sixteen nations involved in the project, governing ownership of the various components, rights to crewing and utilization, and responsibilities for crew rotation and resupply of the International Space Station. It was conceived in 1984 by President Ronald Reagan, during the Space Station Freedom project as it was originally called.","agencies":[{"id":16,"url":"https://ll.thespacedevs.com/2.0.0/agencies/16/","name":"Canadian Space Agency","type":"Government"},{"id":27,"url":"https://ll.thespacedevs.com/2.0.0/agencies/27/","name":"European Space Agency","type":"Multinational"},{"id":37,"url":"https://ll.thespacedevs.com/2.0.0/agencies/37/","name":"Japan Aerospace Exploration Agency","type":"Government"},{"id":44,"url":"https://ll.thespacedevs.com/2.0.0/agencies/44/","name":"National Aeronautics and Space Administration","type":"Government"},{"id":63,"url":"https://ll.thespacedevs.com/2.0.0/agencies/63/","name":"Russian Federal Space Agency (ROSCOSMOS)","type":"Government"}],"image_url":"https://spacelaunchnow-prod-east.nyc3.digitaloceanspaces.com/media/images/international2_program_20201129184745.png","start_date":"1998-11-20T06:40:00Z","end_date":null,"info_url":"https://www.nasa.gov/mission_pages/station/main/index.html","wiki_url":"https://en.wikipedia.org/wiki/International_Space_Station_programme"}]},{"id":"bcab98e3-3650-4733-9d32-47d5870a2151","url":"https://ll.thespacedevs.com/2.0.0/launch/bcab98e3-3650-4733-9d32-47d5870a2151/","launch_library_id":null,"slug":"falcon-9-block-5-nrol-146","name":"Falcon 9 Block 5 | NROL-146","status":{"id":2,"name":"TBD"},"net":"2024-05-19T00:00:00Z","window_end":"2024-05-19T00:00:00Z","window_start":"2024-05-19T00:00:00Z","inhold":false,"tbdtime":true,"tbddate":false,"probability":null,"holdreason":"","failreason":"","hashtag":null,"launch_service_provider":{"id":121,"url":"https://ll.thespacedevs.com/2.0.0/agencies/121/","name":"SpaceX","type":"Commercial"},"rocket":{"id":8232,"configuration":{"id":164,"launch_library_id":188,"url":"https://ll.thespacedevs.com/2.0.0/config/launcher/164/","name":"Falcon 9","family":"Falcon","full_name":"Falcon 9 Block 5","variant":"Block 5"}},"mission":{"id":6809,"launch_library_id":null,"name":"NROL-146","description":"First batch of satellites for a reconnaissance satellite constellation built by SpaceX and Northrop Grumman for the National Reconnaissance Office to provide imaging and other reconnaissance capabilities.","launch_designator":null,"type":"Government/Top Secret","orbit":{"id":25,"name":"Unknown","abbrev":"N/A"}},"pad":{"id":16,"url":"https://ll.thespacedevs.com/2.0.0/pad/16/","agency_id":null,"name":"Space Launch Complex 4E","info_url":null,"wiki_url":"https://en.wikipedia.org/wiki/Vandenberg_Space_Launch_Complex_4#SLC-4E","map_url":"https://www.google.com/maps?q=34.632,-120.611","latitude":"34.632","longitude":"-120.611","location":{"id":11,"url":"https://ll.thespacedevs.com/2.0.0/location/11/","name":"Vandenberg SFB, CA, USA","country_code":"USA","map_image":"https://spacelaunchnow-prod-east.nyc3.digitaloceanspaces.com/media/launch_images/location_11_20200803142416.jpg","total_launch_count":754,"total_landing_count":18},"map_image":"https://spacelaunchnow-prod-east.nyc3.digitaloceanspaces.com/media/launch_images/pad_16_20200803143532.jpg","total_launch_count":143},"webcast_live":false,"image":"https://spacelaunchnow-prod-east.nyc3.digitaloceanspaces.com/media/images/falcon_9_image_20230807133459.jpeg","infographic":null,"program":[]},{"id":"1369f2f0-98db-4b34-b44e-47ddf0628b43","url":"https://ll.thespacedevs.com/2.0.0/launch/1369f2f0-98db-4b34-b44e-47ddf0628b43/","launch_library_id":null,"slug":"electron-ready-aim-prefire-prefire-1","name":"Electron | Ready, Aim, PREFIRE (PREFIRE 1)","status":{"id":1,"name":"Go"},"net":"2024-05-22T07:15:00Z","window_end":"2024-05-22T08:15:00Z","window_start":"2024-05-22T07:15:00Z","inhold":false,"tbdtime":false,"tbddate":false,"probability":null,"holdreason":"","failreason":"","hashtag":null,"launch_service_provider":{"id":147,"url":"https://ll.thespacedevs.com/2.0.0/agencies/147/","name":"Rocket Lab","type":"Commercial"},"rocket":{"id":7983,"configuration":{"id":26,"launch_library_id":148,"url":"https://ll.thespacedevs.com/2.0.0/config/launcher/26/","name":"Electron","family":"","full_name":"Electron","variant":""}},"mission":{"id":6510,"launch_library_id":null,"name":"Ready, Aim, PREFIRE (PREFIRE 1)","description":"First 6U Cubesat carrying a miniaturized IR spectrometer, covering 0- 45 μm at 0.84 μm spectral resolution, operating for one seasonal cycle for NASAs PREFIRE (Polar Radiant Energy in the Far-InfraRed Experiment) mission.","launch_designator":null,"type":"Earth Science","orbit":{"id":13,"name":"Polar Orbit","abbrev":"PO"}},"pad":{"id":65,"url":"https://ll.thespacedevs.com/2.0.0/pad/65/","agency_id":147,"name":"Rocket Lab Launch Complex 1A","info_url":null,"wiki_url":"https://en.wikipedia.org/wiki/Rocket_Lab_Launch_Complex_1","map_url":"https://www.google.com/maps?q=-39.262833,177.864469","latitude":"-39.262833","longitude":"177.864469","location":{"id":10,"url":"https://ll.thespacedevs.com/2.0.0/location/10/","name":"Onenui Station, Mahia Peninsula, New Zealand","country_code":"NZL","map_image":"https://spacelaunchnow-prod-east.nyc3.digitaloceanspaces.com/media/launch_images/location_10_20200803142509.jpg","total_launch_count":43,"total_landing_count":17},"map_image":"https://spacelaunchnow-prod-east.nyc3.digitaloceanspaces.com/media/launch_images/pad_65_20200803143549.jpg","total_launch_count":26},"webcast_live":false,"image":"https://spacelaunchnow-prod-east.nyc3.digitaloceanspaces.com/media/images/electron_image_20190705175640.jpeg","infographic":null,"program":[]},{"id":"ea952239-e9d1-49e6-a813-7912a1d9c54c","url":"https://ll.thespacedevs.com/2.0.0/launch/ea952239-e9d1-49e6-a813-7912a1d9c54c/","launch_library_id":null,"slug":"soyuz-21a-progress-ms-27-88p","name":"Soyuz 2.1a | Progress MS-27 (88P)","status":{"id":2,"name":"TBD"},"net":"2024-05-30T10:55:00Z","window_end":"2024-05-30T10:55:00Z","window_start":"2024-05-30T10:55:00Z","inhold":false,"tbdtime":true,"tbddate":false,"probability":null,"holdreason":"","failreason":"","hashtag":null,"launch_service_provider":{"id":63,"url":"https://ll.thespacedevs.com/2.0.0/agencies/63/","name":"Russian Federal Space Agency (ROSCOSMOS)","type":"Government"},"rocket":{"id":8086,"configuration":{"id":24,"launch_library_id":49,"url":"https://ll.thespacedevs.com/2.0.0/config/launcher/24/","name":"Soyuz 2.1a","family":"Soyuz","full_name":"Soyuz 2.1a","variant":""}},"mission":{"id":6640,"launch_library_id":null,"name":"Progress MS-27 (88P)","description":"Progress resupply mission to the International Space Station.","launch_designator":null,"type":"Resupply","orbit":{"id":8,"name":"Low Earth Orbit","abbrev":"LEO"}},"pad":{"id":20,"url":"https://ll.thespacedevs.com/2.0.0/pad/20/","agency_id":null,"name":"31/6","info_url":null,"wiki_url":"https://en.wikipedia.org/wiki/Baikonur_Cosmodrome_Site_31","map_url":"https://www.google.com/maps?q=45.996034,63.564003","latitude":"45.996034","longitude":"63.564003","location":{"id":15,"url":"https://ll.thespacedevs.com/2.0.0/location/15/","name":"Baikonur Cosmodrome, Republic of Kazakhstan","country_code":"KAZ","map_image":"https://spacelaunchnow-prod-east.nyc3.digitaloceanspaces.com/media/launch_images/location_15_20200803142517.jpg","total_launch_count":1548,"total_landing_count":0},"map_image":"https://spacelaunchnow-prod-east.nyc3.digitaloceanspaces.com/media/launch_images/pad_20_20200803143516.jpg","total_launch_count":415},"webcast_live":false,"image":"https://spacelaunchnow-prod-east.nyc3.digitaloceanspaces.com/media/images/soyuz_2.1a_image_20230805184309.jpg","infographic":null,"program":[{"id":17,"url":"https://ll.thespacedevs.com/2.0.0/program/17/","name":"International Space Station","description":"The International Space Station programme is tied together by a complex set of legal, political and financial agreements between the sixteen nations involved in the project, governing ownership of the various components, rights to crewing and utilization, and responsibilities for crew rotation and resupply of the International Space Station. It was conceived in 1984 by President Ronald Reagan, during the Space Station Freedom project as it was originally called.","agencies":[{"id":16,"url":"https://ll.thespacedevs.com/2.0.0/agencies/16/","name":"Canadian Space Agency","type":"Government"},{"id":27,"url":"https://ll.thespacedevs.com/2.0.0/agencies/27/","name":"European Space Agency","type":"Multinational"},{"id":37,"url":"https://ll.thespacedevs.com/2.0.0/agencies/37/","name":"Japan Aerospace Exploration Agency","type":"Government"},{"id":44,"url":"https://ll.thespacedevs.com/2.0.0/agencies/44/","name":"National Aeronautics and Space Administration","type":"Government"},{"id":63,"url":"https://ll.thespacedevs.com/2.0.0/agencies/63/","name":"Russian Federal Space Agency (ROSCOSMOS)","type":"Government"}],"image_url":"https://spacelaunchnow-prod-east.nyc3.digitaloceanspaces.com/media/images/international2_program_20201129184745.png","start_date":"1998-11-20T06:40:00Z","end_date":null,"info_url":"https://www.nasa.gov/mission_pages/station/main/index.html","wiki_url":"https://en.wikipedia.org/wiki/International_Space_Station_programme"}]},{"id":"0f63b33d-1a83-4eb2-8c2e-d4157bf71230","url":"https://ll.thespacedevs.com/2.0.0/launch/0f63b33d-1a83-4eb2-8c2e-d4157bf71230/","launch_library_id":null,"slug":"falcon-9-block-5-starlink-group-7-27","name":"Falcon 9 Block 5 | Starlink Group 7-27","status":{"id":2,"name":"TBD"},"net":"2024-05-31T00:00:00Z","window_end":"2024-05-31T00:00:00Z","window_start":"2024-05-31T00:00:00Z","inhold":false,"tbdtime":true,"tbddate":true,"probability":null,"holdreason":"","failreason":"","hashtag":null,"launch_service_provider":{"id":121,"url":"https://ll.thespacedevs.com/2.0.0/agencies/121/","name":"SpaceX","type":"Commercial"},"rocket":{"id":8227,"configuration":{"id":164,"launch_library_id":188,"url":"https://ll.thespacedevs.com/2.0.0/config/launcher/164/","name":"Falcon 9","family":"Falcon","full_name":"Falcon 9 Block 5","variant":"Block 5"}},"mission":{"id":6804,"launch_library_id":null,"name":"Starlink Group 7-27","description":"A batch of satellites for the Starlink mega-constellation - SpaceX's project for space-based Internet communication system.","launch_designator":null,"type":"Communications","orbit":{"id":8,"name":"Low Earth Orbit","abbrev":"LEO"}},"pad":{"id":72,"url":"https://ll.thespacedevs.com/2.0.0/pad/72/","agency_id":null,"name":"Unknown Pad","info_url":null,"wiki_url":"","map_url":"https://www.google.com/maps?q=28.458,-80.528","latitude":"28.458","longitude":"-80.528","location":{"id":12,"url":"https://ll.thespacedevs.com/2.0.0/location/12/","name":"Cape Canaveral, FL, USA","country_code":"USA","map_image":"https://spacelaunchnow-prod-east.nyc3.digitaloceanspaces.com/media/launch_images/location_12_20200803142519.jpg","total_launch_count":951,"total_landing_count":51},"map_image":"https://spacelaunchnow-prod-east.nyc3.digitaloceanspaces.com/media/launch_images/pad_72_20200803143403.jpg","total_launch_count":0},"webcast_live":false,"image":"https://spacelaunchnow-prod-east.nyc3.digitaloceanspaces.com/media/images/falcon2520925_image_20221009234147.png","infographic":null,"program":[{"id":25,"url":"https://ll.thespacedevs.com/2.0.0/program/25/","name":"Starlink","description":"Starlink is a satellite internet constellation operated by American aerospace company SpaceX","agencies":[{"id":121,"url":"https://ll.thespacedevs.com/2.0.0/agencies/121/","name":"SpaceX","type":"Commercial"}],"image_url":"https://spacelaunchnow-prod-east.nyc3.digitaloceanspaces.com/media/images/starlink_program_20231228154508.jpeg","start_date":"2018-02-22T14:17:00Z","end_date":null,"info_url":"https://starlink.com","wiki_url":"https://en.wikipedia.org/wiki/Starlink"}]},{"id":"1458b11c-c0ed-4486-9d51-5b574db36f71","url":"https://ll.thespacedevs.com/2.0.0/launch/1458b11c-c0ed-4486-9d51-5b574db36f71/","launch_library_id":null,"slug":"falcon-9-block-5-starlink-group-7-21","name":"Falcon 9 Block 5 | Starlink Group 7-21","status":{"id":2,"name":"TBD"},"net":"2024-05-31T00:00:00Z","window_end":"2024-05-31T00:00:00Z","window_start":"2024-05-31T00:00:00Z","inhold":false,"tbdtime":true,"tbddate":true,"probability":null,"holdreason":"","failreason":"","hashtag":null,"launch_service_provider":{"id":121,"url":"https://ll.thespacedevs.com/2.0.0/agencies/121/","name":"SpaceX","type":"Commercial"},"rocket":{"id":8212,"configuration":{"id":164,"launch_library_id":188,"url":"https://ll.thespacedevs.com/2.0.0/config/launcher/164/","name":"Falcon 9","family":"Falcon","full_name":"Falcon 9 Block 5","variant":"Block 5"}},"mission":{"id":6784,"launch_library_id":null,"name":"Starlink Group 7-21","description":"A batch of satellites for the Starlink mega-constellation - SpaceX's project for space-based Internet communication system.","launch_designator":null,"type":"Communications","orbit":{"id":8,"name":"Low Earth Orbit","abbrev":"LEO"}},"pad":{"id":16,"url":"https://ll.thespacedevs.com/2.0.0/pad/16/","agency_id":null,"name":"Space Launch Complex 4E","info_url":null,"wiki_url":"https://en.wikipedia.org/wiki/Vandenberg_Space_Launch_Complex_4#SLC-4E","map_url":"https://www.google.com/maps?q=34.632,-120.611","latitude":"34.632","longitude":"-120.611","location":{"id":11,"url":"https://ll.thespacedevs.com/2.0.0/location/11/","name":"Vandenberg SFB, CA, USA","country_code":"USA","map_image":"https://spacelaunchnow-prod-east.nyc3.digitaloceanspaces.com/media/launch_images/location_11_20200803142416.jpg","total_launch_count":754,"total_landing_count":18},"map_image":"https://spacelaunchnow-prod-east.nyc3.digitaloceanspaces.com/media/launch_images/pad_16_20200803143532.jpg","total_launch_count":143},"webcast_live":false,"image":"https://spacelaunchnow-prod-east.nyc3.digitaloceanspaces.com/media/images/falcon2520925_image_20221009234147.png","infographic":null,"program":[{"id":25,"url":"https://ll.thespacedevs.com/2.0.0/program/25/","name":"Starlink","description":"Starlink is a satellite internet constellation operated by American aerospace company SpaceX","agencies":[{"id":121,"url":"https://ll.thespacedevs.com/2.0.0/agencies/121/","name":"SpaceX","type":"Commercial"}],"image_url":"https://spacelaunchnow-prod-east.nyc3.digitaloceanspaces.com/media/images/starlink_program_20231228154508.jpeg","start_date":"2018-02-22T14:17:00Z","end_date":null,"info_url":"https://starlink.com","wiki_url":"https://en.wikipedia.org/wiki/Starlink"}]}]}